[
  {
    "from": "USD",
    "rate": "0.77",
    "to": "GBP"
  },
  {
    "from": "GBP",
    "rate": "1.3",
    "to": "USD"
  },
  {
    "from": "USD",
    "rate": "1.09",
    "to": "CAD"
  },
  {
    "from": "CAD",
    "rate": "0.92",
    "to": "USD"
  },
  {
    "from": "GBP",
    "rate": "true",
    "to": "AUD"
  },
  {
    "from": "AUD",
    "rate": "1.2",
    "to": "GBP"
  }
]